Laboratorio 1.1: Exploración y Visualización de Datos
…
## # A tibble: 1 x 14
##   Muestra `Descripcion Mu…   Año Atropello Caída Colisión Choque Volcadura
##   <chr>   <chr>            <dbl>     <dbl> <dbl>    <dbl>  <dbl>     <dbl>
## 1 Comunal RIO HURTADO       2011         0     0        0      0         2
## # … with 6 more variables: Otros <dbl>, Muertos <dbl>, `Lesionados
## #   Graves` <dbl>, `Lesionados Menos Graves` <dbl>, `Lesionados
## #   Leves` <dbl>, `(Incorporar Otra Columna Si es Necesario)` <lgl>

Respuesta: Considerando la fila 100 como se nos pide, vemos que los datos nos entregan una descripcion general de los accidentes ocurridos en cierto lugar del país. Nos entrega el sector principal, en este caso “RIO HURTADO”, el año en qué ocurrió el hecho, el tipo de sector con el que estamos trabajando, y los hechos ocurridos, en este caso 2 Volcaduras y 3 Lesiones leves.

Filtre los datos y genera un dataframe en el cual se indique la cantidad de accidentes tipo Volcadura que hubo en el año 2010 en cada localidad.

print(accidentes[accidentes$Año==2010 & accidentes$Volcadura!=0,c("Muestra", "Descripcion Muestra" ,"Año", "Volcadura")])

## # A tibble: 329 x 4
##    Muestra  `Descripcion Muestra`          Año Volcadura
##    <chr>    <chr>                        <dbl>     <dbl>
##  1 Nacional Nacional                      2010      3629
##  2 Regional XV Región Arica y Parinacota  2010        55
##  3 Comunal  ARICA                         2010        24
##  4 Comunal  CAMARONES                     2010         5
##  5 Comunal  PUTRE                         2010        26
##  6 Regional I Región de Tarapacá          2010       158
##  7 Comunal  IQUIQUE                       2010        22
##  8 Comunal  COLCHANE                      2010         7
##  9 Comunal  HUARA                         2010        25
## 10 Comunal  PICA                          2010        25
## # … with 319 more rows
…
